Verbosity set to ERROR:
[ WARN] Global ^%ydboctoxref maps to default region DEFAULT. Recommended mapping for ^%ydbocto* is to a separate region

Verbosity set to INFO:
[ INFO] PATH:LINENUM DATE TIME : INFO_RECORDING_ENV_VARS : # Recording pertinent ydb_* env var values at process startup
[ WARN] Global ^%ydboctoxref maps to default region DEFAULT. Recommended mapping for ^%ydbocto* is to a separate region
[ INFO] PATH:LINENUM DATE TIME : INFO_PARSING_DONE : Parsing done for SQL command [exit]

Verbosity set to DEBUG:
[ INFO] PATH:LINENUM DATE TIME : INFO_RECORDING_ENV_VARS : # Recording pertinent ydb_* env var values at process startup
[ WARN] Global ^%ydboctoxref maps to default region DEFAULT. Recommended mapping for ^%ydbocto* is to a separate region
[ INFO] PATH:LINENUM DATE TIME : INFO_PARSING_DONE : Parsing done for SQL command [exit]

Verbosity set to TRACE:
[ INFO] PATH:LINENUM DATE TIME : INFO_RECORDING_ENV_VARS : # Recording pertinent ydb_* env var values at process startup
[ WARN] Global ^%ydboctoxref maps to default region DEFAULT. Recommended mapping for ^%ydbocto* is to a separate region
[TRACE] PATH:LINENUM DATE TIME : INFO_OCTO_STARTED : Octo started
Starting parse
Entering state sss
Next token is token EXIT (: )
Shifting token EXIT (: )
Entering state sss
Reducing stack by rule rrr (line lll):
   $1 = token EXIT (: )
-> $$ = nterm exit_command (: )
Entering state sss
Reducing stack by rule rrr (line lll):
   $1 = nterm exit_command (: )
[ INFO] PATH:LINENUM DATE TIME : INFO_PARSING_DONE : Parsing done for SQL command [exit]
