
-- TWI08 : Multiple plans resulting from WHERE IN usage do not nest but instead thread

SELECT firstName FROM names WHERE firstName IN ('Zero', 'Acid', 'Cool');

FIRSTNAME
Acid
Zero
Zero
(3 rows)
;; This is a generated file; do not modify. Generated M code corresponds to below SQL query
;; ---------------------------------------------------------
;  SELECT firstName FROM names WHERE firstName IN ('Zero', 'Acid', 'Cool');
;; ---------------------------------------------------------

octoPlan0(cursorId,wrapInTp)
    DO:'$DATA(^%ydboctoocto("xref_status","NAMES","FIRSTNAME")) xrefPlan^%ydboctoXS6loYoNNto55iv2lHkNkCK(cursorId)
    NEW %ydboctog,%ydboctop,%ydboctoexpr
    TSTART:wrapInTp ():(serial)
    DO octoPlan1(cursorId)
    TCOMMIT:wrapInTp
    QUIT

octoPlan1(cursorId)
    NEW %ydboctoz,%ydboctoexpr KILL %ydboctocursor(cursorId,"keys",3,"","")
    NEW %ydboctoin1
    DO
    . SET %ydboctoexpr=$GET(%ydboctocursor(cursorId,"parameters",1))
    SET %ydboctoin1(%ydboctoexpr)=""
    DO
    . SET %ydboctoexpr=$GET(%ydboctocursor(cursorId,"parameters",2))
    SET %ydboctoin1(%ydboctoexpr)=""
    DO
    . SET %ydboctoexpr=$GET(%ydboctocursor(cursorId,"parameters",3))
    SET %ydboctoin1(%ydboctoexpr)=""
    SET %ydboctoin1="" FOR  DO:$DATA(%ydboctoin1(%ydboctoin1))  SET %ydboctoin1=$ORDER(%ydboctoin1(%ydboctoin1)) QUIT:""=%ydboctoin1
    . SET %ydboctoexpr=%ydboctoin1
    . SET %ydboctocursor(cursorId,"keys",1,"NAMES","FIRSTNAME")=%ydboctoexpr IF '$ZYISSQLNULL(%ydboctocursor(cursorId,"keys",1,"NAMES","FIRSTNAME")) IF $DATA(^%ydboctoxref("NAMES","FIRSTNAME",%ydboctocursor(cursorId,"keys",1,"NAMES","FIRSTNAME"))) DO
    . . SET %ydboctocursor(cursorId,"keys",1,"NAMES","ID")=""
    . . FOR  SET %ydboctocursor(cursorId,"keys",1,"NAMES","ID")=$ORDER(^%ydboctoxref("NAMES","FIRSTNAME",%ydboctocursor(cursorId,"keys",1,"NAMES","FIRSTNAME"),%ydboctocursor(cursorId,"keys",1,"NAMES","ID"))) QUIT:(%ydboctocursor(cursorId,"keys",1,"NAMES","ID")="")  DO
    . . . SET %ydboctoexpr=1
    . . . IF %ydboctoexpr DO
    . . . . SET:1&$INCREMENT(%ydboctocursor(cursorId,"keys",3,"","")) %ydboctoz=42
    . . . . SET %ydboctoexpr=%ydboctocursor(cursorId,"keys",1,"NAMES","FIRSTNAME")
    . . . . SET %ydboctoexpr=$$str2mval^%ydboctoplanhelpers(%ydboctoexpr)
    . . . . SET %ydboctocursor(cursorId,"keys",3,"","",%ydboctocursor(cursorId,"keys",3,"",""))=%ydboctoexpr
    QUIT
