ID|FIRSTNAME|LASTNAME
0|Zero|Cool
1|Acid|Burn
2|Cereal|Killer
3|Lord|Nikon
4|Joey|
5|Zero|Cool
(6 rows)
;; This is a generated file; do not modify. Generated M code corresponds to below SQL query
;; ---------------------------------------------------------
;  select * from names where id = id;
;; ---------------------------------------------------------

octoPlan0(cursorId,wrapInTp)
    NEW %ydboctog,%ydboctop,%ydboctoexpr
    TSTART:wrapInTp ():(serial)
    DO octoPlan1(cursorId)
    TCOMMIT:wrapInTp
    QUIT

octoPlan1(cursorId)
    NEW %ydboctoz,%ydboctoexpr KILL %ydboctocursor(cursorId,"keys",3,"","")
    SET %ydboctocursor(cursorId,"keys",1,"NAMES","ID")=""
    FOR  SET %ydboctocursor(cursorId,"keys",1,"NAMES","ID")=$ORDER(^names(%ydboctocursor(cursorId,"keys",1,"NAMES","ID"))) QUIT:(%ydboctocursor(cursorId,"keys",1,"NAMES","ID")="")  DO
    . SET %ydboctoexpr=1
    . SET %ydboctoexpr=%ydboctocursor(cursorId,"keys",1,"NAMES","ID")
    . SET %ydboctoexpr(1)=$$ForceNumeric^%ydboctoplanhelpers(%ydboctoexpr)
    . SET %ydboctoexpr=%ydboctocursor(cursorId,"keys",1,"NAMES","ID")
    . SET %ydboctoexpr=$$ForceNumeric^%ydboctoplanhelpers(%ydboctoexpr)
    . SET %ydboctoexpr=%ydboctoexpr(1)=%ydboctoexpr
    . IF %ydboctoexpr DO
    . . SET:1&$INCREMENT(%ydboctocursor(cursorId,"keys",3,"","")) %ydboctoz=42
    . . SET %ydboctoexpr=%ydboctocursor(cursorId,"keys",1,"NAMES","ID")
    . . SET %ydboctoexpr=$$str2mval^%ydboctoplanhelpers(%ydboctoexpr)
    . . SET %ydboctoexpr(0)=%ydboctoexpr
    . . SET %ydboctoexpr=$PIECE($GET(^names(%ydboctocursor(cursorId,"keys",1,"NAMES","ID"))),"|",1) SET:(""=%ydboctoexpr) %ydboctoexpr=$ZYSQLNULL
    . . SET %ydboctoexpr=$$str2mval^%ydboctoplanhelpers(%ydboctoexpr)
    . . SET %ydboctoexpr=%ydboctoexpr(0)_%ydboctoexpr
    . . SET %ydboctoexpr(0)=%ydboctoexpr
    . . SET %ydboctoexpr=$PIECE($GET(^names(%ydboctocursor(cursorId,"keys",1,"NAMES","ID"))),"|",2) SET:(""=%ydboctoexpr) %ydboctoexpr=$ZYSQLNULL
    . . SET %ydboctoexpr=$$str2mval^%ydboctoplanhelpers(%ydboctoexpr)
    . . SET %ydboctoexpr=%ydboctoexpr(0)_%ydboctoexpr
    . . SET %ydboctocursor(cursorId,"keys",3,"","",%ydboctocursor(cursorId,"keys",3,"",""))=%ydboctoexpr
    QUIT
